tbj6Feb                      ! PROCNAME
13000d0                      ! CM energy
0                            ! IPPBAR
1                            ! NRUNS
1 0                          ! ILOADGRID, ISAVEGRID
100000    1                   ! NCALL1, ITMX1 
1000000000 1000000000        ! NCALL2, ITMX2
1                            ! idum0
4                            ! ILEP
0                            ! ICUT
1 0 1                        ! IEVTOUT, IPLOT, ILOG
0 0 1                        ! IVERB, IPRSUB, IPRAS
1d0   0d0   0d0   0d0        ! VL, Re VR, Re gL, Re gR
      0d0   0d0   0d0        !     Im VR, Im gL, Im gR
-1  0d0                      ! ISCAN, SCANSTEP
10042                        ! IPDSET
1d0  1d0                     ! QFAC1, QFAC2
0                            ! IMATCH: 0 = none; 1 = subtraction; 2 = PT cut
10d0                         ! PTbmin
